<svg width="80" height="80" viewBox="0 0 80 80" fill="none" xmlns="http://www.w3.org/2000/svg">
  <circle cx="40" cy="40" r="40" fill="white" />
  <path fill-rule="evenodd" clip-rule="evenodd"
    d="M40.1283 40.6225C39.7991 46.9144 34.5073 51.9268 28 52V28C34.5073 28.0733 39.7991 33.0855 40.1283 39.3775C40.4532 33.1685 45.6107 28.2056 52 28.0055V51.9946C45.6107 51.7945 40.4532 46.8316 40.1283 40.6225Z"
    fill="#FF6428" />
</svg>
  